{
    "key": "TransformRotate-x",
    "widgetName": "TransformRotate",
    "widgetSetting": {
        "angle": "0",
        "alignment": "center",
        "origin": {
            "dx": "0",
            "dy": "0"
        },
        "child": {}
    }
}