{
    "key": "category_title_grid_layout_4-x",
    "widgetName": "CategoryTitleGridLayout4",
    "widgetSetting": {

        "dataList": {
            "category": "category1",
            "product": [
              "product7",
              "product8",
              "product9"
            ],
            "image": [
              "image1",
              "image2",
              "image3"
            ]
        },
        "useBackgroundCategoryTitle": "false",
        "useFullWidthCategoryTitle": "false",
        "pathImageBgCategoryTitle": "",
        "colorCategoryTitle": "0xFFFFFFFF",
        "colorPrice": "0xFFFFFFFF",
        "colorProductName": "0xFFFFFFFF",
        "colorDescription": "0xFFFFFFFF",
        "colorBackgroundCategoryTitle": "0xFFFFFFFF"
    }
}