{
    "widgetName": "VerticalDivider",
    "widgetSetting" : {
        "width" : "",
        "color" : "",
        "indent" : "",
        "endIndent" : "",
        "thickness" : ""
    }    
}