{
    "key": "product-row-3-x",
    "widgetName": "ProductRow3",
    "widgetSetting": {
        "product": {},
        "fractionDigitsForPrice": "2",
        "maxLineOfProductName": "3",
        "prefixProductPrice": "",
        "subfixProductPrice": "",
        "upperCaseProductName": "true",
        "productNameTextStyle": {},
        "productPriceTextStyle": {},
        "elementGap": "",
        "productDescriptionTextStyle": {},
        "imageBorderRadius": "",
        "horizontalDivider": {},
        "imageHeight": "",
        "imageWidth": ""
    }
}